module gitlab.com/mironet/websocket-test

go 1.17

require (
	github.com/gorilla/handlers v1.5.1
	github.com/gorilla/mux v1.8.0
	github.com/gorilla/websocket v1.5.0
)

require github.com/felixge/httpsnoop v1.0.1 // indirect
